{
    "name" : "sharp",
    "type" : "direct",
    "input" : [ "package" ],
    "input_types" : [ "str" ],
    "output" : [ "result" ],
    "output_types" : [ "str" ],
    "description" : "Run phasis",
    "parameters" : "",
    "executable" : "/bin/bash @APP_PATH@/sharp-stream.sh @ROOT_BIN_PATH@/bin/python @APP_PATH@ @LOCAL_PYTHON_COMMAND@",
    "executableX" : "/bin/bash @APP_PATH@/sharp-stream.sh @ROOT_BIN_PATH@/bin/python @APP_PATH@ /usr/bin/python",
    "executable2" : "@ROOT_BIN_PATH@/bin/python @APP_PATH@/sharp-stream.py",
    "num_tasks" : 1
}
