{
    "machines" :
    [ 
        {
            "name": "localhost",
            "address": "localhost",
            "port": 22,
            "username": "hari",
            "password": "keyfile:/Users/hari/.ssh/id_rsa",
            "environment": { "PYTHONUSERBASE": "/tmp" },
            "config_dir": "/tmp/camera"
        }
    ],
    "graph" : 
    {
        "configure" : 
        [
            { 
                "machine": "localhost", 
                "apps": 
                [
                    {"name": "dask/dask-scheduler"}
                ],
                "tasks" : ["dask-cluster"]
            }
        ]
    }
}
